00000000000000000000000000000000
00010000000000000000000000000001
00000000000000000000000000000000
00111100000010001011111011111111
00110101000010001111111111111000
00100100000010010000000011111111
10101101000010010000000000000000
00111100000100001011111000000000
00100100000011110000000000000000
00000010000011110111100000100001
10001101111010010000000000000000
10001101111011110000000000000100
00000000000011110111110000000000
00000001001011110100100000100101
00111100000010000100011001001100
00110101000010000100010101111111
00010001000010010000000000000011
00000000000000000000000000000000
00010000000000000000000001000010
00000000000000000000000000000000
00100100000011110000000000111000
00000010000011110111100000100001
10001101111100010000000000000000
10001101111011110000000000000100
00000000000011110111110000000000
00000010001011111000100000100101
00100100000011110000000001011000
00000010000011110111100000100001
10001101111100100000000000000000
10001101111011110000000000000100
00000000000011110111110000000000
00000010010011111001000000100101
00110010010100101111111111111111
00100100000011110000000000110000
00000010000011110111100000100001
10001101111100110000000000000000
10001101111011110000000000000100
00000000000011110111110000000000
00000010011011111001100000100101
00100110001011110000000000001000
00000000000011110111100001000000
00000010000011110111100000100001
10001101111101000000000000000000
10001101111011110000000000000100
00000000000011110111110000000000
00000010100011111010000000100101
00100110001011110000000000010000
00000000000011110111100001000000
00000010000011110111100000100001
10001101111101010000000000000000
10001101111011110000000000000100
00000000000011110111110000000000
00000010101011111010100000100101
00100110001011110000000000000100
00000000000011110111100001000000
00000010000011110111100000100001
10001101111101100000000000000000
10001101111011110000000000000100
00000000000011110111110000000000
00000010110011111011000000100101
00010010100000000000000000010000
00000000000000000000000000000000
00010010101000000000000000001110
00000000000000000000000000000000
00100110110011110000000000000000
00000000000011110111100001000000
00000010000011110111100000100001
10001101111010000000000000000000
10001101111011110000000000000100
00000000000011110111110000000000
00000001000011110100000000100101
10101110100010000000000000000000
00100110110101100000000000000100
00100110100101000000000000000100
00100110101101011111111111111100
00011110101000001111111111110100
00000000000000000000000000000000
00100110001100010000000000100000
00100110010100101111111111111111
00011110010000001111111111010111
00000000000000000000000000000000
00000010011000000000000000001000
00000000000000000000000000000000
00010000000000001111111111111111
00000000000000000000000000000000
00010000000000001111111111111111
00000000000000000000000000000000
